EESchema Schematic File Version 2
LIBS:power
LIBS:device
LIBS:transistors
LIBS:conn
LIBS:linear
LIBS:regul
LIBS:74xx
LIBS:cmos4000
LIBS:adc-dac
LIBS:memory
LIBS:xilinx
LIBS:microcontrollers
LIBS:dsp
LIBS:microchip
LIBS:analog_switches
LIBS:motorola
LIBS:texas
LIBS:intel
LIBS:audio
LIBS:interface
LIBS:digital-audio
LIBS:philips
LIBS:display
LIBS:cypress
LIBS:siliconi
LIBS:opto
LIBS:atmel
LIBS:contrib
LIBS:valves
LIBS:PressTester-cache
EELAYER 25 0
EELAYER END
$Descr A4 11693 8268
encoding utf-8
Sheet 1 1
Title "PressTester"
Date ""
Rev ""
Comp ""
Comment1 ""
Comment2 ""
Comment3 ""
Comment4 ""
$EndDescr
$Comp
L CONN_01X02 Power
U 1 1 56F0168C
P 1050 950
F 0 "Power" H 950 1100 50  0000 C CNN
F 1 "CONN_01X02" V 1150 950 50  0000 C CNN
F 2 "" H 1050 950 50  0000 C CNN
F 3 "" H 1050 950 50  0000 C CNN
	1    1050 950 
	-1   0    0    -1  
$EndComp
$Comp
L CONN_02X02 DCDC12~>>~5
U 1 1 56F01711
P 3650 950
F 0 "DCDC12 >> 5" H 3650 1100 50  0000 C CNN
F 1 "CONN_02X02" H 3650 800 50  0000 C CNN
F 2 "" H 3650 -250 50  0000 C CNN
F 3 "" H 3650 -250 50  0000 C CNN
	1    3650 950 
	1    0    0    -1  
$EndComp
$Comp
L CONN_01X06 FTDI~Cable
U 1 1 56F01770
P 1050 1900
F 0 "FTDI Cable" H 1050 2250 50  0000 C CNN
F 1 "CONN_01X06" V 1150 1900 50  0000 C CNN
F 2 "" H 1050 1900 50  0000 C CNN
F 3 "" H 1050 1900 50  0000 C CNN
	1    1050 1900
	-1   0    0    -1  
$EndComp
$Comp
L CP1 C?
U 1 1 56F01C51
P 1500 1050
F 0 "C?" H 1525 1150 50  0000 L CNN
F 1 "CP1" H 1525 950 50  0000 L CNN
F 2 "" H 1500 1050 50  0000 C CNN
F 3 "" H 1500 1050 50  0000 C CNN
	1    1500 1050
	1    0    0    -1  
$EndComp
$Comp
L C C?
U 1 1 56F01CDA
P 1850 1050
F 0 "C?" H 1875 1150 50  0000 L CNN
F 1 "C" H 1875 950 50  0000 L CNN
F 2 "" H 1888 900 50  0000 C CNN
F 3 "" H 1850 1050 50  0000 C CNN
	1    1850 1050
	1    0    0    -1  
$EndComp
Text Label 2150 900  0    60   ~ 0
12V
Text Label 2150 1000 0    60   ~ 0
GND
Text Label 3100 900  0    60   ~ 0
12V
Text Label 3100 1000 0    60   ~ 0
GND
Text Label 4550 1000 0    60   ~ 0
GND
Text Label 4550 900  0    60   ~ 0
5V
$Comp
L CONN_01X03 PressureSensor
U 1 1 56F02014
P 6150 1000
F 0 "PressureSensor" H 6150 1300 50  0000 C CNN
F 1 "CONN_01X03" V 6250 1000 50  0000 C CNN
F 2 "" H 6150 1000 50  0000 C CNN
F 3 "" H 6150 1000 50  0000 C CNN
	1    6150 1000
	-1   0    0    -1  
$EndComp
Text Label 6550 900  0    60   ~ 0
5V
Text Label 6550 1100 0    60   ~ 0
GND
Text Label 6550 1000 0    60   ~ 0
PressData
Text Label 7700 1050 0    60   ~ 0
PressData
$Comp
L R R?
U 1 1 56F0232D
P 8250 1200
F 0 "R?" V 8330 1200 50  0000 C CNN
F 1 "1k" V 8250 1200 50  0000 C CNN
F 2 "" V 8180 1200 50  0000 C CNN
F 3 "" H 8250 1200 50  0000 C CNN
	1    8250 1200
	1    0    0    -1  
$EndComp
$Comp
L R R?
U 1 1 56F02367
P 8250 1650
F 0 "R?" V 8330 1650 50  0000 C CNN
F 1 "4k" V 8250 1650 50  0000 C CNN
F 2 "" V 8180 1650 50  0000 C CNN
F 3 "" H 8250 1650 50  0000 C CNN
	1    8250 1650
	1    0    0    -1  
$EndComp
Text Label 8250 2000 0    60   ~ 0
GND
$Comp
L OPA376AIDCK U?
U 1 1 56F023BB
P 9450 1400
F 0 "U?" H 9500 1600 50  0000 C CNN
F 1 "OPA376AIDCK" H 9650 1200 50  0000 C CNN
F 2 "SC70-5" H 9400 1100 50  0000 L CNN
F 3 "" H 9500 1600 50  0000 C CNN
	1    9450 1400
	1    0    0    -1  
$EndComp
$Comp
L CP1 C?
U 1 1 56F024F7
P 4150 1050
F 0 "C?" H 4175 1150 50  0000 L CNN
F 1 "CP1" H 4175 950 50  0000 L CNN
F 2 "" H 4150 1050 50  0000 C CNN
F 3 "" H 4150 1050 50  0000 C CNN
	1    4150 1050
	1    0    0    -1  
$EndComp
Text Notes 7800 900  0    60   ~ 0
1-5V >> 0-4V\nDrop voltage by registors
Text Notes 9000 2050 0    60   ~ 0
0-4V >> 0-5V\nScale voltage by an OpAmp
Text Notes 1050 700  0    60   ~ 0
Put capacitors \nfor backup power of this circuit
Text Label 1350 4700 0    60   ~ 0
5V
Text Label 1350 6900 0    60   ~ 0
GND
$Comp
L C C?
U 1 1 56F02E89
P 1700 5650
F 0 "C?" H 1725 5750 50  0000 L CNN
F 1 "C" H 1725 5550 50  0000 L CNN
F 2 "" H 1738 5500 50  0000 C CNN
F 3 "" H 1700 5650 50  0000 C CNN
	1    1700 5650
	1    0    0    -1  
$EndComp
$Comp
L C C?
U 1 1 56F02F79
P 1950 5650
F 0 "C?" H 1975 5750 50  0000 L CNN
F 1 "C" H 1975 5550 50  0000 L CNN
F 2 "" H 1988 5500 50  0000 C CNN
F 3 "" H 1950 5650 50  0000 C CNN
	1    1950 5650
	1    0    0    -1  
$EndComp
$Comp
L C C?
U 1 1 56F02FBD
P 2200 5650
F 0 "C?" H 2225 5750 50  0000 L CNN
F 1 "C" H 2225 5550 50  0000 L CNN
F 2 "" H 2238 5500 50  0000 C CNN
F 3 "" H 2200 5650 50  0000 C CNN
	1    2200 5650
	1    0    0    -1  
$EndComp
$Comp
L SW_PUSH SW?
U 1 1 56F03319
P 6200 6500
F 0 "SW?" H 6350 6610 50  0000 C CNN
F 1 "SW_PUSH" H 6200 6420 50  0000 C CNN
F 2 "" H 6200 6500 50  0000 C CNN
F 3 "" H 6200 6500 50  0000 C CNN
	1    6200 6500
	1    0    0    -1  
$EndComp
$Comp
L SW_PUSH SW?
U 1 1 56F0343C
P 6200 6800
F 0 "SW?" H 6350 6910 50  0000 C CNN
F 1 "SW_PUSH" H 6200 6720 50  0000 C CNN
F 2 "" H 6200 6800 50  0000 C CNN
F 3 "" H 6200 6800 50  0000 C CNN
	1    6200 6800
	1    0    0    -1  
$EndComp
$Comp
L SW_PUSH SW?
U 1 1 56F0348B
P 6200 7100
F 0 "SW?" H 6350 7210 50  0000 C CNN
F 1 "SW_PUSH" H 6200 7020 50  0000 C CNN
F 2 "" H 6200 7100 50  0000 C CNN
F 3 "" H 6200 7100 50  0000 C CNN
	1    6200 7100
	1    0    0    -1  
$EndComp
$Comp
L R R?
U 1 1 56F0843B
P 5700 7400
F 0 "R?" V 5780 7400 50  0000 C CNN
F 1 "10k" V 5700 7400 50  0000 C CNN
F 2 "" V 5630 7400 50  0000 C CNN
F 3 "" H 5700 7400 50  0000 C CNN
	1    5700 7400
	1    0    0    -1  
$EndComp
$Comp
L R R?
U 1 1 56F084A9
P 5400 7400
F 0 "R?" V 5480 7400 50  0000 C CNN
F 1 "10k" V 5400 7400 50  0000 C CNN
F 2 "" V 5330 7400 50  0000 C CNN
F 3 "" H 5400 7400 50  0000 C CNN
	1    5400 7400
	1    0    0    -1  
$EndComp
$Comp
L R R?
U 1 1 56F08507
P 5100 7400
F 0 "R?" V 5180 7400 50  0000 C CNN
F 1 "10k" V 5100 7400 50  0000 C CNN
F 2 "" V 5030 7400 50  0000 C CNN
F 3 "" H 5100 7400 50  0000 C CNN
	1    5100 7400
	1    0    0    -1  
$EndComp
Text Label 5100 7700 0    60   ~ 0
GND
Text Label 4700 5550 0    60   ~ 0
StabilizedData
Text Label 4700 5950 0    60   ~ 0
SDA
Text Label 4700 6050 0    60   ~ 0
SCL
Text Label 4700 6150 0    60   ~ 0
Reset
$Comp
L CONN_01X07 I2C~Display
U 1 1 56F095FF
P 6750 2900
F 0 "I2C Display" H 6750 3300 50  0000 C CNN
F 1 "CONN_01X07" V 6850 2900 50  0000 C CNN
F 2 "" H 6750 2900 50  0000 C CNN
F 3 "" H 6750 2900 50  0000 C CNN
	1    6750 2900
	-1   0    0    -1  
$EndComp
Text Label 7850 2600 0    60   ~ 0
GND
Text Label 7850 2700 0    60   ~ 0
3.3V
Text Label 7850 2800 0    60   ~ 0
DisplayContrust
$Comp
L R 1k-
U 1 1 56F09DA6
P 9650 2650
F 0 "1k-" V 9730 2650 50  0000 C CNN
F 1 "R" V 9650 2650 50  0000 C CNN
F 2 "" V 9580 2650 50  0000 C CNN
F 3 "" H 9650 2650 50  0000 C CNN
	1    9650 2650
	1    0    0    -1  
$EndComp
$Comp
L R 1k-
U 1 1 56F09ECB
P 9400 2650
F 0 "1k-" V 9480 2650 50  0000 C CNN
F 1 "R" V 9400 2650 50  0000 C CNN
F 2 "" V 9330 2650 50  0000 C CNN
F 3 "" H 9400 2650 50  0000 C CNN
	1    9400 2650
	1    0    0    -1  
$EndComp
Text Label 9950 2500 0    60   ~ 0
5V
$Comp
L R R?
U 1 1 56F09FB9
P 9100 2900
F 0 "R?" V 9180 2900 50  0000 C CNN
F 1 "300" V 9100 2900 50  0000 C CNN
F 2 "" V 9030 2900 50  0000 C CNN
F 3 "" H 9100 2900 50  0000 C CNN
	1    9100 2900
	0    1    1    0   
$EndComp
$Comp
L R R?
U 1 1 56F0A02A
P 9450 3000
F 0 "R?" V 9530 3000 50  0000 C CNN
F 1 "300" V 9450 3000 50  0000 C CNN
F 2 "" V 9380 3000 50  0000 C CNN
F 3 "" H 9450 3000 50  0000 C CNN
	1    9450 3000
	0    1    1    0   
$EndComp
$Comp
L ZENER 3.3V
U 1 1 56F0A07E
P 8700 3100
F 0 "3.3V" H 8700 3200 50  0000 C CNN
F 1 "ZENER" H 8700 3000 50  0000 C CNN
F 2 "" H 8700 3100 50  0000 C CNN
F 3 "" H 8700 3100 50  0000 C CNN
	1    8700 3100
	0    1    1    0   
$EndComp
$Comp
L ZENER 3.3V
U 1 1 56F0A103
P 9000 3200
F 0 "3.3V" H 9000 3300 50  0000 C CNN
F 1 "ZENER" H 9000 3100 50  0000 C CNN
F 2 "" H 9000 3200 50  0000 C CNN
F 3 "" H 9000 3200 50  0000 C CNN
	1    9000 3200
	0    1    1    0   
$EndComp
Text Label 9000 3500 0    60   ~ 0
GND
$Comp
L C C?
U 1 1 56F0A64E
P 7200 2550
F 0 "C?" H 7225 2650 50  0000 L CNN
F 1 "C" H 7225 2450 50  0000 L CNN
F 2 "" H 7238 2400 50  0000 C CNN
F 3 "" H 7200 2550 50  0000 C CNN
	1    7200 2550
	1    0    0    -1  
$EndComp
Text Label 9950 2900 0    60   ~ 0
SCL
Text Label 9950 3000 0    60   ~ 0
SDA
Text Label 7850 3100 0    60   ~ 0
3.3V
Text Label 7850 3200 0    60   ~ 0
GND
$Comp
L POT RV?
U 1 1 56F0B5A9
P 6750 4200
F 0 "RV?" H 6750 4120 50  0000 C CNN
F 1 "0-10k" H 6750 4000 50  0000 C CNN
F 2 "" H 6750 4200 50  0000 C CNN
F 3 "" H 6750 4200 50  0000 C CNN
	1    6750 4200
	0    1    1    0   
$EndComp
$Comp
L R R?
U 1 1 56F0B652
P 6750 3800
F 0 "R?" V 6830 3800 50  0000 C CNN
F 1 "10k" V 6750 3800 50  0000 C CNN
F 2 "" V 6680 3800 50  0000 C CNN
F 3 "" H 6750 3800 50  0000 C CNN
	1    6750 3800
	1    0    0    -1  
$EndComp
Text Label 6750 3500 0    60   ~ 0
3.3V
Text Label 6750 4500 0    60   ~ 0
GND
Text Label 7250 4200 0    60   ~ 0
DisplayContrust
Text Label 4700 4700 0    60   ~ 0
AirInput
Text Label 4700 4800 0    60   ~ 0
AirOutput
Text Label 1200 3450 0    60   ~ 0
AirInput
$Comp
L R R?
U 1 1 56F0CC20
P 1750 3450
F 0 "R?" V 1830 3450 50  0000 C CNN
F 1 "30" V 1750 3450 50  0000 C CNN
F 2 "" V 1680 3450 50  0000 C CNN
F 3 "" H 1750 3450 50  0000 C CNN
	1    1750 3450
	0    1    1    0   
$EndComp
$Comp
L R R?
U 1 1 56F0CC98
P 2100 3600
F 0 "R?" V 2180 3600 50  0000 C CNN
F 1 "10k" V 2100 3600 50  0000 C CNN
F 2 "" V 2030 3600 50  0000 C CNN
F 3 "" H 2100 3600 50  0000 C CNN
	1    2100 3600
	1    0    0    -1  
$EndComp
$Comp
L Q_NMOS_DGS Q?
U 1 1 56F0CCF7
P 2500 3450
F 0 "Q?" H 2800 3500 50  0000 R CNN
F 1 "Q_NMOS_DGS" H 3150 3400 50  0000 R CNN
F 2 "" H 2700 3550 50  0000 C CNN
F 3 "" H 2500 3450 50  0000 C CNN
	1    2500 3450
	1    0    0    -1  
$EndComp
$Comp
L INDUCTOR L?
U 1 1 56F0D06A
P 2600 2800
F 0 "L?" V 2550 2800 50  0000 C CNN
F 1 "INDUCTOR" V 2700 2800 50  0000 C CNN
F 2 "" H 2600 2800 50  0000 C CNN
F 3 "" H 2600 2800 50  0000 C CNN
	1    2600 2800
	1    0    0    -1  
$EndComp
Text Label 2600 2450 0    60   ~ 0
12V
$Comp
L D D?
U 1 1 56F0D140
P 2300 2800
F 0 "D?" H 2300 2900 50  0000 C CNN
F 1 "20V-" H 2300 2700 50  0000 C CNN
F 2 "" H 2300 2800 50  0000 C CNN
F 3 "" H 2300 2800 50  0000 C CNN
	1    2300 2800
	0    1    1    0   
$EndComp
Text Label 2600 4050 0    60   ~ 0
GND
Text Label 3850 3450 0    60   ~ 0
AirOutput
$Comp
L R R?
U 1 1 56F0DCE1
P 4400 3450
F 0 "R?" V 4480 3450 50  0000 C CNN
F 1 "30" V 4400 3450 50  0000 C CNN
F 2 "" V 4330 3450 50  0000 C CNN
F 3 "" H 4400 3450 50  0000 C CNN
	1    4400 3450
	0    1    1    0   
$EndComp
$Comp
L R R?
U 1 1 56F0DCE7
P 4750 3600
F 0 "R?" V 4830 3600 50  0000 C CNN
F 1 "10k" V 4750 3600 50  0000 C CNN
F 2 "" V 4680 3600 50  0000 C CNN
F 3 "" H 4750 3600 50  0000 C CNN
	1    4750 3600
	1    0    0    -1  
$EndComp
$Comp
L Q_NMOS_DGS Q?
U 1 1 56F0DCED
P 5150 3450
F 0 "Q?" H 5450 3500 50  0000 R CNN
F 1 "Q_NMOS_DGS" H 5800 3400 50  0000 R CNN
F 2 "" H 5350 3550 50  0000 C CNN
F 3 "" H 5150 3450 50  0000 C CNN
	1    5150 3450
	1    0    0    -1  
$EndComp
$Comp
L INDUCTOR L?
U 1 1 56F0DCF6
P 5250 2800
F 0 "L?" V 5200 2800 50  0000 C CNN
F 1 "INDUCTOR" V 5350 2800 50  0000 C CNN
F 2 "" H 5250 2800 50  0000 C CNN
F 3 "" H 5250 2800 50  0000 C CNN
	1    5250 2800
	1    0    0    -1  
$EndComp
Text Label 5250 2300 0    60   ~ 0
12V
$Comp
L D D?
U 1 1 56F0DCFD
P 4950 2800
F 0 "D?" H 4950 2900 50  0000 C CNN
F 1 "20V-" H 4950 2700 50  0000 C CNN
F 2 "" H 4950 2800 50  0000 C CNN
F 3 "" H 4950 2800 50  0000 C CNN
	1    4950 2800
	0    1    1    0   
$EndComp
Text Label 5250 4050 0    60   ~ 0
GND
Text Label 6300 5450 0    60   ~ 0
Reset
$Comp
L R R?
U 1 1 56F0E5A8
P 7450 5200
F 0 "R?" V 7530 5200 50  0000 C CNN
F 1 "1k" V 7450 5200 50  0000 C CNN
F 2 "" V 7380 5200 50  0000 C CNN
F 3 "" H 7450 5200 50  0000 C CNN
	1    7450 5200
	1    0    0    -1  
$EndComp
$Comp
L SW_PUSH SW?
U 1 1 56F0E660
P 6950 5450
F 0 "SW?" H 7100 5560 50  0000 C CNN
F 1 "SW_PUSH" H 6950 5370 50  0000 C CNN
F 2 "" H 6950 5450 50  0000 C CNN
F 3 "" H 6950 5450 50  0000 C CNN
	1    6950 5450
	1    0    0    -1  
$EndComp
Text Label 7450 5750 0    60   ~ 0
GND
Text Label 7450 4850 0    60   ~ 0
5V
Text Label 4700 4900 0    60   ~ 0
LED_0
Text Label 4700 5000 0    60   ~ 0
LED_1
Text Label 4700 5100 0    60   ~ 0
LED_2
Text Label 4700 5200 0    60   ~ 0
LED_3
Text Label 4700 5300 0    60   ~ 0
LED_4
Text Label 4700 5400 0    60   ~ 0
LED_5
NoConn ~ 4450 5650
NoConn ~ 4450 5750
NoConn ~ 4450 5850
Text Label 2250 1650 0    60   ~ 0
GND
Text Label 2250 1850 0    60   ~ 0
5V
$Comp
L CP1 C?
U 1 1 56F10BF1
P 1700 1700
F 0 "C?" H 1725 1800 50  0000 L CNN
F 1 "CP1" H 1725 1600 50  0000 L CNN
F 2 "" H 1700 1700 50  0000 C CNN
F 3 "" H 1700 1700 50  0000 C CNN
	1    1700 1700
	-1   0    0    1   
$EndComp
Text Label 2250 2050 0    60   ~ 0
TXD
Text Label 2250 1950 0    60   ~ 0
RXD
$Comp
L ATMEGA328-P IC1
U 1 1 56F015B8
P 3450 5800
F 0 "IC1" H 2700 7050 50  0000 L BNN
F 1 "ATMEGA328-P" H 3850 4400 50  0000 L BNN
F 2 "DIL28" H 3450 5800 50  0000 C CIN
F 3 "" H 3450 5800 50  0000 C CNN
	1    3450 5800
	1    0    0    -1  
$EndComp
Text Label 4700 6300 0    60   ~ 0
RXD
Text Label 4700 6400 0    60   ~ 0
TXD
Text Label 6750 6200 0    60   ~ 0
5V
NoConn ~ 4450 6800
NoConn ~ 4450 6900
NoConn ~ 4450 7000
NoConn ~ 1250 1750
NoConn ~ 1250 2150
$Comp
L R_PACK8 RP?
U 1 1 56F13B68
P 9500 5250
F 0 "RP?" H 9500 5700 50  0000 C CNN
F 1 "R_PACK8" H 9500 4800 50  0000 C CNN
F 2 "" H 9500 5250 50  0000 C CNN
F 3 "" H 9500 5250 50  0000 C CNN
	1    9500 5250
	1    0    0    -1  
$EndComp
Text Label 9700 5750 0    60   ~ 0
GND
Text Label 8800 4900 0    60   ~ 0
5V
Text Label 8800 5000 0    60   ~ 0
LED_0
Text Label 8800 5100 0    60   ~ 0
LED_1
Text Label 8800 5200 0    60   ~ 0
LED_2
Text Label 8800 5300 0    60   ~ 0
LED_3
Text Label 8800 5400 0    60   ~ 0
LED_4
Text Label 8800 5500 0    60   ~ 0
LED_5
Wire Wire Line
	1250 900  2150 900 
Connection ~ 1500 900 
Connection ~ 1850 900 
Wire Wire Line
	1250 1000 1350 1000
Wire Wire Line
	1350 1000 1350 1200
Wire Wire Line
	1350 1200 2000 1200
Connection ~ 1500 1200
Wire Wire Line
	2000 1200 2000 1000
Wire Wire Line
	2000 1000 2150 1000
Connection ~ 1850 1200
Wire Wire Line
	3100 900  3400 900 
Wire Wire Line
	3100 1000 3400 1000
Wire Wire Line
	6350 900  6550 900 
Wire Wire Line
	6550 1000 6350 1000
Wire Wire Line
	6350 1100 6550 1100
Wire Wire Line
	3900 900  4550 900 
Connection ~ 4150 900 
Wire Wire Line
	3900 1000 4000 1000
Wire Wire Line
	4000 1000 4000 1200
Wire Wire Line
	4000 1200 4350 1200
Connection ~ 4150 1200
Wire Wire Line
	4350 1200 4350 1000
Wire Wire Line
	4350 1000 4550 1000
Wire Wire Line
	7700 1050 8250 1050
Wire Wire Line
	8250 1350 8250 1500
Wire Wire Line
	8250 1800 8250 2000
Wire Wire Line
	1350 4700 2550 4700
Wire Wire Line
	1350 6900 2550 6900
Wire Wire Line
	2550 7000 2400 7000
Wire Wire Line
	2400 7000 2400 6900
Connection ~ 2400 6900
Wire Wire Line
	1700 5500 1700 4700
Connection ~ 1700 4700
Wire Wire Line
	1700 5800 1700 6900
Connection ~ 1700 6900
Wire Wire Line
	1950 5800 1950 6900
Connection ~ 1950 6900
Wire Wire Line
	2200 5800 2200 6900
Connection ~ 2200 6900
Wire Wire Line
	2200 5500 2200 5300
Wire Wire Line
	2200 5300 2550 5300
Wire Wire Line
	2550 5000 1950 5000
Wire Wire Line
	1950 5000 1950 5500
Wire Wire Line
	5100 6700 5100 7250
Connection ~ 5100 7100
Wire Wire Line
	5400 6600 5400 7250
Connection ~ 5400 6800
Wire Wire Line
	5700 7250 5700 6500
Connection ~ 5700 6500
Wire Wire Line
	5100 7550 5700 7550
Connection ~ 5400 7550
Wire Wire Line
	5100 7700 5100 7550
Wire Wire Line
	4450 5550 4700 5550
Wire Wire Line
	4700 5950 4450 5950
Wire Wire Line
	4450 6050 4700 6050
Wire Wire Line
	4700 6150 4450 6150
Wire Wire Line
	9400 2500 9950 2500
Connection ~ 9650 2500
Wire Wire Line
	9400 2800 9400 2900
Wire Wire Line
	9250 2900 9950 2900
Wire Wire Line
	9600 3000 9950 3000
Wire Wire Line
	9650 3000 9650 2800
Wire Wire Line
	6950 3000 9300 3000
Wire Wire Line
	6950 2900 8950 2900
Connection ~ 8700 2900
Connection ~ 9000 3000
Wire Wire Line
	9000 3500 9000 3400
Wire Wire Line
	8700 3300 8700 3400
Wire Wire Line
	8700 3400 9000 3400
Wire Wire Line
	7850 2800 6950 2800
Wire Wire Line
	6950 2700 7850 2700
Connection ~ 7200 2700
Wire Wire Line
	6950 2600 7050 2600
Wire Wire Line
	7050 2600 7050 2400
Wire Wire Line
	7050 2400 7400 2400
Wire Wire Line
	7400 2400 7400 2600
Wire Wire Line
	7400 2600 7850 2600
Connection ~ 7200 2400
Connection ~ 9400 2900
Connection ~ 9650 3000
Wire Wire Line
	7850 3100 6950 3100
Wire Wire Line
	6950 3200 7850 3200
Wire Wire Line
	6750 3500 6750 3650
Wire Wire Line
	6750 3950 6750 4050
Wire Wire Line
	6900 4200 7250 4200
Wire Wire Line
	6750 4350 6750 4500
Wire Wire Line
	4700 4800 4450 4800
Wire Wire Line
	4450 4700 4700 4700
Wire Wire Line
	1200 3450 1600 3450
Wire Wire Line
	1900 3450 2300 3450
Connection ~ 2100 3450
Wire Wire Line
	2600 4050 2600 3650
Wire Wire Line
	2100 3750 2100 3850
Wire Wire Line
	2100 3850 2600 3850
Connection ~ 2600 3850
Wire Wire Line
	2600 3250 2600 3100
Wire Wire Line
	2600 2450 2600 2650
Wire Wire Line
	2300 2650 2300 2450
Wire Wire Line
	2300 2450 2600 2450
Connection ~ 2600 2450
Wire Wire Line
	2600 3150 2300 3150
Wire Wire Line
	2300 3150 2300 2950
Connection ~ 2600 3150
Wire Wire Line
	3850 3450 4250 3450
Wire Wire Line
	4550 3450 4950 3450
Connection ~ 4750 3450
Wire Wire Line
	5250 4050 5250 3650
Wire Wire Line
	4750 3750 4750 3850
Wire Wire Line
	4750 3850 5250 3850
Connection ~ 5250 3850
Wire Wire Line
	5250 3250 5250 3100
Wire Wire Line
	5250 2300 5250 2500
Wire Wire Line
	4950 2650 4950 2450
Wire Wire Line
	4950 2450 5250 2450
Connection ~ 5250 2450
Wire Wire Line
	5250 3150 4950 3150
Wire Wire Line
	4950 3150 4950 2950
Connection ~ 5250 3150
Wire Wire Line
	6300 5450 6650 5450
Wire Wire Line
	7250 5450 7450 5450
Wire Wire Line
	7450 5350 7450 5750
Connection ~ 7450 5450
Wire Wire Line
	7450 5050 7450 4850
Wire Wire Line
	4700 4900 4450 4900
Wire Wire Line
	4450 5000 4700 5000
Wire Wire Line
	4700 5100 4450 5100
Wire Wire Line
	4450 5200 4700 5200
Wire Wire Line
	4700 5300 4450 5300
Wire Wire Line
	4450 5400 4700 5400
Wire Wire Line
	4450 6500 5900 6500
Wire Wire Line
	4450 6600 5400 6600
Wire Wire Line
	5400 6800 5900 6800
Wire Wire Line
	5100 7100 5900 7100
Wire Wire Line
	5100 6700 4450 6700
Wire Wire Line
	4700 6400 4450 6400
Wire Wire Line
	4450 6300 4700 6300
Wire Wire Line
	6750 6200 6750 7100
Wire Wire Line
	6750 7100 6500 7100
Wire Wire Line
	6500 6800 6750 6800
Connection ~ 6750 6800
Wire Wire Line
	6500 6500 6750 6500
Connection ~ 6750 6500
Wire Wire Line
	1250 1650 1400 1650
Wire Wire Line
	1400 1650 1400 1550
Wire Wire Line
	1400 1550 2000 1550
Wire Wire Line
	2000 1550 2000 1650
Wire Wire Line
	2000 1650 2250 1650
Connection ~ 1700 1550
Wire Wire Line
	1250 1850 2250 1850
Connection ~ 1700 1850
Wire Wire Line
	1250 1950 2250 1950
Wire Wire Line
	2250 2050 1250 2050
Wire Wire Line
	9700 4900 9700 5750
Connection ~ 9700 5000
Connection ~ 9700 5100
Connection ~ 9700 5200
Connection ~ 9700 5300
Connection ~ 9700 5400
Connection ~ 9700 5500
Connection ~ 9700 5600
Wire Wire Line
	8800 4900 9300 4900
Wire Wire Line
	9300 5000 8800 5000
Wire Wire Line
	8800 5100 9300 5100
Wire Wire Line
	9300 5200 8800 5200
Wire Wire Line
	8800 5300 9300 5300
Wire Wire Line
	9300 5400 8800 5400
Wire Wire Line
	9300 5500 8800 5500
NoConn ~ 9300 5600
$EndSCHEMATC
